28
30
33
24
23
20
34
29
30
33
26
27
21
20
25
33
26
29
32
35
32
30
37
33
21
25
31
35
32
33
19
26
35
27
21
29
31
36
21
24
18
25
31
21
29
34
29
25
23
37
23
31
16
22
28
28
28
19
29
35
26
26
33
21
27
18
38
26
29
25
28
22
26
35
28
30
22
23
37
22
39
18
28
29
34
33
22
34
42
31
26
24
21
27
31
30
20
26
23
34
44
24
19
25
34
17
37
25
25
30
21
32
32
29
24
28
22
28
35
22
25
19
21
32
30
36
28
23
21
22
31
25
34
19
29
29
27
27
34
11
14
33
22
25
27
22
30
20
17
23
16
21
27
23
20
18
25
28
27
36
27
23
18
46
39
27
36
17
11
29
20
18
21
32
18
16
24
30
23
23
22
25
24
18
29
29
28
27
28
26
20
26
25
27
25
21
26
29
37
22
21
20
33
47
28
32
25
21
34
33
29
29
25
16
22
32
34
26
41
31
35
23
29
25
30
20
33
23
35
24
29
25
24
30
29
18
41
31
29
30
33
39
31
29
17
32
23
26
30
34
32
23
27
27
34
30
22
29
27
24
43
23
19
32
28
24
23
22
17
20
25
24
27
21
31
20
24
35
24
24
30
32
22
24
38
26
29
29
30
34
17
27
27
22
25
26
22
29
36
29
28
37
44
27
32
32
26
29
23
18
28
26
20
32
25
22
36
30
16
19
32
30
33
25
36
26
35
19
33
32
32
42
31
31
29
33
36
31
25
30
14
28
35
28
34
31
42
33
29
26
22
26
33
31
22
30
20
24
21
24
31
39
20
28
11
27
21
28
20
30
36
26
30
10
33
31
19
45
17
41
20
23
18
27
29
44
27
26
20
24
36
28
23
32
40
22
31
25
20
22
36
42
28
28
31
29
20
22
34
36
35
26
25
27
31
35
22
30
22
20
14
33
33
17
25
25
17
34
33
27
40
25
30
31
31
29
30
29
25
25
28
28
33
35
19
43
30
22
31
24
48
20
45
25
30
18
27
35
27
32
33
34
29
19
26
25
28
24
29
25
26
26
26
25
31
24
29
23
13
26
22
17
29
28
32
22
34
21
22
16
31
33
24
25
24
26
22
22
28
26
