31
38
36
24
21
30
28
19
22
27
43
18
26
31
23
33
31
31
30
25
25
21
36
23
37
30
21
31
27
19
43
32
37
30
28
22
30
21
20
20
17
31
21
23
27
30
34
30
29
36
36
29
28
20
24
33
31
29
25
28
28
38
20
29
25
27
24
28
33
29
18
28
24
22
40
24
27
20
31
26
33
24
37
28
31
31
24
30
29
24
35
28
17
24
20
24
24
22
41
42
